1, Arpepe 2007 Sassella Riserva Rocce Rosse  (Valtellina Superiore) , Nebbiolo,1
2, Campo alle Comete 2015  Bolgheri Superiore , Red Blend,2
3, Arpepe 2009 Sassella Ultimi Raggi  (Valtellina Superiore) , Nebbiolo,3
4, Boscarelli 2013 Il Nocio  (Vino Nobile di Montepulciano) , Sangiovese,4
5, Arpepe 2012 Sassella Stella Retica  (Valtellina) , Nebbiolo,5
6, Boscarelli 2013 Sotto Casa  (Vino Nobile di Montepulciano) , Red Blend,6
7, Poliziano 2015 Asinone  (Vino Nobile di Montepulciano) , Red Blend,7
8, Dei 2012 Bossona  (Vino Nobile di Montepulciano) , Red Blend,8
9, Il Conventino 2013 Riserva  (Vino Nobile di Montepulciano) , Red Blend,9
10, Arpepe 2012 Grumello Rocca De Piro  (Valtellina Superiore) , Nebbiolo,10
11, Campo alle Comete 2016 Rosso Stupore  (Bolgheri) , Red Blend,11
863, Livon 2015 Soluna Malvasia (Collio)	 , Malvasia Italian White,12
862, Ferruccio Sgubin 2015 Ribolla Gialla (Collio) , Ribolla Gialla,13
9431, Klaus Lentsch 2012 Fuchslahn Gewürztraminer (Alto Adige) , Gewürztraminer,14
860, Nals Margreid 2016 Pinot Grigio (Alto Adige) , Pinot Grigio,15
859, Cantina del Castello 2015  Soave Classico , Garganega,16
858, Guerrieri Rizzardi 2015  Soave Classico , Garganega,17
857, Villa Russiz 2015 Les Enfants White (Collio) , White Blend,18
856, Ronco Blanchis 2015 Friulano (Collio) , Friulano,19
855, Livon 2015 Valbuins Sauvignon (Collio) , Sauvignon Sauvignon Blanc,20
854, Attems 2016 Sauvignon (Collio) , Sauvignon Sauvignon Blanc,21
853,  Alessio Komjanc 2015 Friulano (Collio) ,  Friulano Italian White,22
9373, Donnafugata 2013 Lighea Zibibbo (Terre Siciliane) , Zibibbo Muscat,23
851,  Borgo Conventi 2015 Sauvignon (Collio) ,  Sauvignon Sauvignon Blanc,24
850,  Ronco del Gelso 2015 Rive Alte Pinot Grigio (Friuli Isonzo) ,  Pinot Grigio,25
849,  Alois Lageder 2016 Pinot Grigio (Alto Adige) ,  Pinot Grigio,26
12,  Michele Satta 2013 I Castagni  (Bolgheri Superiore) ,  Red Blend,27
13,  Nera 2010 Sassella Riserva  (Valtellina Superiore) ,  Nebbiolo,28
14,  Arpepe 2012 Inferno Fiamme Antiche  (Valtellina) ,  Nebbiolo,29
15,  La Perla Marco Triacca 2012 La Mossa  (Valtellina Superiore) ,  Nebbiolo,30
16,  Nera 2011  Sforzato di Valtellina ,  Nebbiolo,31
17,  Michele Satta 2014 Piastraia  (Bolgheri Superiore) ,  Red Blend,32
18,  Gracciano della Seta 2014  Vino Nobile di Montepulciano ,  Red Blend,33
19,  Nino Negri 2013 Sfursat Carlo Negri  (Sforzato di Valtellina) ,  Nebbiolo,34
20,  Boscarelli 2013 Riserva  (Vino Nobile di Montepulciano) ,  Red Blend,35
21,  Cosimo Taurino 2011 Patriglione Negroamaro (Salento) ,  Negroamaro Italian Red,36
22,  Contucci 2013 Riserva  (Vino Nobile di Montepulciano) ,  Red Blend,37
23,  Gracciano della Seta 2013 Riserva  (Vino Nobile di Montepulciano) ,  Red Blend,38
24,  Poliziano 2015  Vino Nobile di Montepulciano ,  Red Blend,39
25,  Poggio alla Sala 2013 Riserva  (Vino Nobile di Montepulciano) ,  Sangiovese,40
26,  Rivera 2012 Puer Apuliae Nero di Troia (Castel del Monte) ,  Nero di Troia Italian Red,41
27,  La Braccesca 2013 Vigneto Santa Pia Riserva  (Vino Nobile di Montepulciano) ,  Sangiovese,42
28,  Rivera 2012 Il Falcone Riserva Red (Castel del Monte) ,  Red Blend,43
29,  Romeo 2014  Vino Nobile di Montepulciano ,  Red Blend,44
30,  Tenute Chiaromonte 2012 Riserva Primitivo (Gioia del Colle) ,  Primitivo Zinfandel,45
848,  Balestri Valda 2014 Vigneto Sengialta  (Soave Classico) ,  White Blend,46
847,  Castello di Spessa 2015 Pinot Bianco (Collio) ,  Pinot Bianco Pinot Blanc,47
846,  Borgo San Daniele 2015 Rive Alte Friulano (Isonzo del Friuli) ,  Friulano Italian White,48
845,  Tiefenbrunner 2016 Pinot Grigio (Vigneti delle Dolomiti) ,  Pinot Grigio,49
844,  Primosic 2011 Klin White (Collio) ,  White Blend,50
843,  Alois Lageder 2016 Pinot Bianco (Alto Adige) ,  Pinot Bianco Pinot Blanc,51
842,  Ronco del Gelso 2015 Rive Alte Sottomonte Sauvignon (Friuli Isonzo) ,  Sauvignon Sauvignon Blanc,52
841,  Borgo San Daniele 2015 Malvasia (Isonzo del Friuli) ,  Malvasia Italian White,53
840,  Muzic 2015 Chardonnay (Collio) ,  Chardonnay,54
839,  Raccaro 2015 Rolat Friulano (Collio) ,  Friulano Italian White,55
800,  Olivi 2015 Le Buche Coreno White (Orcia) ,  White Blend,56
778,  Bucci 2015  Verdicchio dei Castelli di Jesi Classico Superiore ,  Verdicchio Italian White,57
726,  Bucci 2014 Villa Bucci Riserva  (Verdicchio dei Castelli di Jesi Classico) ,  Verdicchio Italian White,58
699,  Tenuta Casaletti 2016  Soave ,  Garganega Italian White,59
684,  Cantine Astroni 2014 Vigna Astroni Falanghina (Campi Flegrei) ,  Falanghina Italian White,60
674,  Montesole 2015  Fiano di Avellino ,  Fiano Italian White,61
672,  La Sibilla 2014 Cruna Delago Falanghina (Campi Flegrei) ,  Falanghina Italian White,62
661,  Planeta 2016 Grillo (Sicilia) ,  Grillo Italian White,63
659,  Cusumano 2016 Alta Mora Bianco  (Etna) ,  White Blend,64
656,  Contrade di Taurasi , Lonardo 2014 Greco Musc Burlesque Roviello (Campania) ,65
650,  Manimurci 2016 Nepente  (Fiano di Avellino) ,  Fiano Italian White,66
634,  Montesole 2015  Falanghina del Sannio ,  Falanghina Italian White,67
633,  Le Vigne di Eli 2016 Bianco  (Etna) ,  White Blend,68
614,  Mastroberardino 2016 NovaSerra  (Greco di Tufo) ,  Greco Italian White,69
613,  Mastroberardino 2016 Morabianca Falanghina (Irpinia) ,  Falanghina Italian White,70
1375, Serra dei Fiori 2015 La Regina Nascetta (Langhe) , Nascetta Italian White,71
607,  Planeta 2016 Bianco Moscato (Noto) ,  Moscato Muscat,72
599,  Villa Diamante 2015 Vigna della Congregazione  (Fiano di Avellino) ,  Fiano Italian White,73
598,  Rocca del Principe 2014 Tognano  (Fiano di Avellino) ,  Fiano Italian White,74
595,  Vivera 2013 Salisire Bianco  (Etna) ,  White Blend,75
31,  Trerose 2015 Santa Caterina  (Vino Nobile di Montepulciano) ,  Sangiovese,76
32,  Campo alle Comete 2015 Rosso Stupore  (Bolgheri) ,  Red Blend,77
33,  La Braccesca 2015  Vino Nobile di Montepulciano ,  Red Blend,78
34,  Mamete Prevostini 2013 Riserva  (Valtellina Superiore) ,  Nebbiolo,79
35,  Ornellaia 2014  Bolgheri Superiore ,  Red Blend,80
36,  Gianfranco Fino 2015 Jo Negroamaro (Salento) ,  Negroamaro Italian Red,81
37,  Guado al Melo 2016 Criseo White (Bolgheri) ,  White Blend,82
38,  Plozza 2013 RedEdition  (Valtellina Superiore) ,  Nebbiolo,83
39,  Boscarelli 2014  Vino Nobile di Montepulciano ,  Red Blend,84
40,  Castello di Bolgheri 2015  Bolgheri Superiore ,  Red Blend,85
41,  Dei 2014  Vino Nobile di Montepulciano ,  Red Blend,86
42,  Il Macchione 2011 Riserva  (Vino Nobile di Montepulciano) ,  Sangiovese,87
122, Tenute Chiaromonte 2014 Muro SantAngelo Contrada Barbatto Primitivo (Gioia del Colle) , Primitivo Zinfandel,88
44,  Caven 2011 Messere  (Sforzato di Valtellina) ,  Nebbiolo,89
268, Cantine del Borgo Reale 2015 Pinot Nero (Puglia) , Pinot Nero,90
46,  Lunadoro 2014 Pagliareto  (Vino Nobile di Montepulciano) ,  Sangiovese,91
47,  Plozza 2013 BlackEdition Sforzato Riserva  (Valtellina Superiore) ,  Nebbiolo,92
48,  Carpineto 2010 Vigneto Poggio SantEnrico  (Vino Nobile di Montepulciano) ,  Sangiovese,93
49,  Icario 2011  Vino Nobile di Montepulciano ,  Red Blend,94
50,  Lunadoro 2013 Quercione Riserva  (Vino Nobile di Montepulciano) ,  Red Blend,95
51,  Mamete Prevostini 2015 Santa Rita  (Valtellina) ,  Nebbiolo,96
52,  Marchesi de Frescobaldi 2013 Ammiraglia  (Maremma Toscana) ,  Syrah,97
53,  Michele Satta 2015 Rosso  (Bolgheri) ,  Red Blend,98
54,  Palazzo Vecchio 2013 Terrarossa  (Vino Nobile di Montepulciano) ,  Red Blend,99
55,  Salcheto 2014  Vino Nobile di Montepulciano ,  Sangiovese,100
56,  Talosa 2013 Filai Lunghi  (Vino Nobile di Montepulciano) ,  Sangiovese,101
57,  Talosa 2013 Riserva  (Vino Nobile di Montepulciano) ,  Sangiovese,102
58,  Rivera 2015 Triusco  (Primitivo di Manduria) ,  Primitivo Zinfandel,103
59,  Salcheto 2013 Riserva  (Vino Nobile di Montepulciano) ,  Red Blend,104
60,  Avignonesi 2013 Grandi Annate  (Vino Nobile di Montepulciano) ,  Sangiovese,105
61,  Guado al Melo 2016 Rute  (Bolgheri) ,  Red Blend,106
594,  Prà 2015 Staforte  (Soave Classico) ,  White Blend,107
591,  Tornatore 2016 Pietrarizzo Bianco  (Etna) ,  White Blend,108
590,  Planeta 2016 Carricante (Sicilia) ,  Carricante Italian White,109
589,  Pieropan 2016  Soave Classico ,  White Blend,110
587,  Prà 2016 Monte Grande  (Soave Classico) ,  White Blend,111
586,  Planeta 2016 Cometa Fiano (Sicilia) ,  Fiano Italian White,112
585,  Planeta 2016 Bianco  (Etna) ,  White Blend,113
582,  Tenuta delle Terre Nere 2016 Bianco  (Etna) ,  White Blend,114
575,  Pieropan 2015 La Rocca  (Soave Classico) ,  Garganega Italian White,115
572,  Pieropan 2015 Calvarino  (Soave Classico) ,  White Blend,116
272,  San Marzano 2016 Il Pumo Sauvignon,Malvasia White (Salento) ,117
267,  Borgo La Cacia 2015  Lugana ,  Turbiana Italian White,118
262,  Castello Monaci 2016 Acante Fiano (Salento) ,  Fiano Italian White,119
261,  Cantine del Borgo Reale 2016 Pinot Grigio (Puglia) ,  Pinot Grigio,120
256,  Giancarlo Ceci 2016 Panascio Bombino Bianco (Castel del Monte) ,  Bombino Bianco Italian White,121
254,  Cantele 2015 Teresamanara Chardonnay (Salento) ,  Chardonnay,122
253,  Santa Sofia 2016  Lugana ,  Turbiana Italian White,123
251,  Cantele 2016 Chardonnay (Salento) ,  Chardonnay,124
248,  Cantina Le Grotte 2015 Selva Della Rocca Falanghina (Puglia) ,  Falanghina Italian White,125
237,  Bruni 2016 Plinio White (Maremma Toscana) ,  White Blend,126
235,  Malavasi Daniele 2016  Lugana ,  Turbiana,127
234,  Delibori 2016  Lugana ,  White Blend,128
226,  Tommasi 2016 Le Fornaci  (Lugana) ,  Turbiana Italian White,129
223,  Cà Maiol 2015 Contato  (Lugana) ,  Turbiana Italian White,130
221,  Masseria Altemura 2016 Fiano (Salento) ,  Fiano Italian White,131
220,  Leone de Castris 2016 Messapia Verdeca (Salento) ,  Verdeca Italian White,132
211,  Masseria Altemura 2016 Falanghina (Salento) ,  Falanghina Italian White,133
209,  La Selva 2016 Vermentino (Maremma Toscana) ,  Vermentino Italian White,134
206,  Tenute Chiaromonte 2016 Kimia Fiano (Puglia) ,  Fiano Italian White,135
203,  Fattoria San Felo 2016 Viognier (Maremma Toscana) ,  Viognier,136
200,  Monte del Frà 2016  Lugana ,  Turbiana Italian White,137
199,  Polvanera 2016 Bianco Minutolo (Puglia) ,  Minutolo Italian White,138
192,  Rivera 2016 Terre Al Monte Sauvignon (Castel del Monte) ,  Sauvignon Sauvignon Blanc,139
191,  Villabella 2016  Lugana ,  Turbiana Italian White,140
189,  Villa Pinciana 2015 Viognier (Maremma Toscana) ,  Viognier,141
187,  Tormaresca 2017 Chardonnay (Puglia) ,  Chardonnay,142
186,  Tormaresca 2016 Chardonnay (Puglia) ,  Chardonnay,143
182,  Rocca delle Macìe 2016 Campo Maccione Vermentino (Maremma Toscana) ,  Vermentino Italian White,144
180,  I Pastini 2016 Antico White (Locorotondo) ,  White Blend,145
177,  Villa Schinosa 2016 Fiano (Puglia) ,  Fiano Italian White,146
169,  Rocca di Montemassi 2016 Calasole White (Maremma Toscana) ,  White Blend,147
163,  I Pastini 2016 Faraone Verdeca (Valle dItria) ,  Verdeca Italian White,148
62,  Nino Negri 2015 Vigneto Fracia  (Valtellina Superiore) ,  Nebbiolo,149
63,  Podere Conca 2015 Agapanto  (Bolgheri) ,  Red Blend,150
64,  Botromagno 2014 Pier delle Vigne Red (Murgia) ,  Red Blend,151
65,  Castello di Bolgheri 2015 Varvàra  (Bolgheri) ,  Red Blend,152
66,  Nera 2010 Grumello Riserva  (Valtellina Superiore) ,  Nebbiolo,153
67,  Polvanera 2013 17 Vigneto Montevella Primitivo (Gioia del Colle) ,  Primitivo Zinfandel,154
68,  Rivera 2016 Preludio N.1 Chardonnay (Castel del Monte) ,  Chardonnay,155
69,  Villa Schinosa 2012 San Valentino Red (Puglia) ,  Red Blend,156
70,  Ambrogio e Giovanni Folonari 2014 Torcalvano  (Vino Nobile di Montepulciano) ,  Sangiovese,157
71,  Arpepe 2015 Rosso  (Valtellina) ,  Nebbiolo,158
72,  Caven 2010 Inferno Al Carmine Riserva  (Valtellina Superiore) ,  Nebbiolo,159
73,  Fattoria di Magliano 2013 Poggio Bestiale  (Maremma Toscana) ,  Red Blend,160
74,  Il Conventino 2014  Vino Nobile di Montepulciano ,  Red Blend,161
75,  Nera 2010 Inferno Riserva  (Valtellina Superiore) ,  Nebbiolo,162
76,  Nottola 2013 Origine Riserva  (Vino Nobile di Montepulciano) ,  Sangiovese,163
77,  Palazzo Vecchio 2012 Riserva  (Vino Nobile di Montepulciano) ,  Red Blend,164
78,  Rocca di Frassinello 2015 Baffonero  (Maremma Toscana) ,  Merlot,165
79,  Rocca di Montemassi 2015  Maremma Toscana ,  Red Blend,166
80,  Valdipiatta 2015  Vino Nobile di Montepulciano ,  Red Blend,167
81,  Argentiera 2015  Bolgheri Superiore ,  Red Blend,168
82,  Caven 2010 Sassella La Priora Riserva  (Valtellina Superiore) ,  Nebbiolo,169
83,  Gianfranco Fino 2015 Es  (Primitivo del Salento) ,  Primitivo Zinfandel,170
84,  Guado al Melo 2015 Atis  (Bolgheri Superiore) ,  Red Blend,171
85,  Rocca di Frassinello 2015  Maremma Toscana ,  Red Blend,172
86,  Argentiera 2015 Villa Donoratico  (Bolgheri) ,  Red Blend,173
87,  Cantele 2014 Teresamanara Negroamaro (Salento) ,  Negroamaro Italian Red,174
88,  Cecchi 2013  Vino Nobile di Montepulciano ,  Red Blend,175
89,  Grattamacco 2014  Bolgheri Superiore ,  Red Blend,176
90,  Rocca di Frassinello 2015 Ornello  (Maremma Toscana) ,  Red Blend,177
91,  Villa S. Anna 2013 Poldo  (Vino Nobile di Montepulciano) ,  Red Blend,178
92,  Rocca di Montemassi 2016 Le Focaie  (Maremma Toscana) ,  Sangiovese,179
93,  Tormaresca 2016 Pietrabianca Chardonnay (Castel del Monte) ,  Chardonnay,180
94,  Villa Pinciana 2016 Airali White (Maremma Toscana) ,  White Blend,181
95,  Zeni 2016 Marogne  (Lugana) ,  Turbiana Italian White,182
96,  Bindella 2014  Vino Nobile di Montepulciano ,  Red Blend,183
97,  Cosimo Taurino 2010 Notarpanaro Negroamaro (Salento) ,  Negroamaro Italian Red,184
98,  Fattoria di Magliano 2013 Perenzo  (Maremma Toscana) ,  Syrah,185
99,  Botromagno 2015 Poggio al Bosco White (Gravina) ,  White Blend,186
100,  Cantina del Giusto 2014 San Claudio II  (Vino Nobile di Montepulciano) ,  Red Blend,187
101,  Carpineto 2013 Riserva  (Vino Nobile di Montepulciano) ,  Red Blend,188
102,  Casteani 2013 Marujo  (Maremma Toscana) ,  Red Blend,189
103,  Caven 2010 Giupa Riserva  (Valtellina Superiore) ,  Nebbiolo,190
104,  Concura 2013 Riserva  (Primitivo di Manduria) ,  Primitivo Zinfandel,191
105,  Feliciana 2016 Felugan  (Lugana) ,  Turbiana Italian White,192
106,  Grattamacco 2016  Bolgheri ,  Red Blend,193
107,  La Selva 2014  Maremma Toscana ,  Ciliegiolo Italian White,194
110,  Michele Satta 2016 Costa di Giulia White (Bolgheri) ,  White Blend,195
126,  Fattoria San Felo 2016 Le Stoppie Vermentino (Maremma Toscana) ,  Vermentino Italian White,196
145,  Fattoria di Magliano 2016 Pagliatura Vermentino (Maremma Toscana) ,  Vermentino Italian White,197
153,  San Marzano 2016 Edda Lei White (Salento) ,  White Blend,198
154,  Ancilla 2016 Ella  (Lugana) ,  Turbiana Italian White,199
